1 10 20
100 200 125
201 210 89
900 1000 174
500 550 137
900000 910000 445
1 1000000 525
1 1 1
501 500 111
10000 50000 324
11 20 21
20 20 8
999999 999998 259
600 6000 238
11 2001 182
910 900000 525
8000 9000 247
480 40008 324
1000 55000 340
30000 300001 443
300001 30000 443
1000000 1000000 153
1810 2000 175
2008 2090 157
7000 700000 509
20 90 116
115 290 128
3301 3401 181
700 70001 340
809 810 47
800000 800023 238
1000000 1 525
210 210 40
9 9 20
10 9 20
9 10 20
8100 8200 190
1930 2000 175
900000 900000 158
999999 999999 259
1000 1 179
1390 670 182
410 411 134
1590 1591 105
200000 200000 130
13 80 116
80 13 116
999 1000 112
1000 999 112
310 310 87
700 700 83
19 80 116
1000 1000 112
50000 50000 128
750760 750770 256
4958 3920 215
777 777 34
849038 758492 525
1000 10000 262
5000 5100 179
500000 500000 152
666 666 114
2345 23456 279
89898 89898 165
987654 900000 507
6895 5000 262
300 4000 238
4000 300 238
220 280000 443
350 3567 217
87 87 31
66657 60000 335
101 102 26
102 101 26
8010 8000 146
3000 30000 308
2 2 2
77777 77777 170
888 800 179
3546 2937 199
4352 2718 238
8907 8907 97
545454 777777 509
8839 6666 257
420 420 41
23456 7890 279
9 7000 262
678 678 52
8888 8888 35
9999 5 262
4345 3000 238
6785 50000 324
97865 98976 284
3 3 8
883 883 29
2103 9090 262
3 7650 262
20 20 8
481 480 49
31300 34000 285
40000 34000 324
1720 2017 180
20000 20000 31
2783 9000 262
999999 99999 525
1480 1471 172
51 51 25
820 830 135
