1 10 20
100 200 125
201 210 89
900 1000 174
310156 936258 525
253107 302143 407
667257 733434 504
412389 461396 444
381811 592714 470
185884 753330 509
512323 718687 509
553805 848723 525
387266 690559 509
23618 113520 354
877650 929692 476
318599 826732 509
421368 697178 509
875466 898462 445
596920 676363 509
8490 382285 443
153708 870306 525
4333 378525 443
288707 851226 525
79113 82871 320
287571 824107 509
74160 455814 449
781798 950777 525
28351 794115 509
488112 612369 470
578593 870635 525
4948 195039 383
194391 504471 449
396097 852257 525
96106 274433 443
503523 687130 509
50991 982093 525
777581 836918 468
926 828214 509
169451 696479 509
957368 987159 458
71735 821839 509
531800 781889 509
88498 771939 509
94453 874720 525
602233 966607 525
42088 109819 354
5779 26372 282
753939 880802 525
603211 922177 525
576538 963147 525
451263 666480 509
332176 529010 470
30851 31391 254
273119 863120 525
125438 994950 525
441160 604702 470
45086 529212 470
500191 978675 525
653419 769514 504
232607 984762 525
7191 568361 470
385368 494488 449
616265 667071 509
399167 885416 525
609765 647839 509
61391 106535 354
475925 562780 470
82121 677986 509
107676 228897 386
245449 687034 509
165116 806659 509
40233 923828 525
447011 780325 509
629103 728203 504
20715 225020 386
121023 444851 449
585640 973388 525
76519 492473 449
303576 609064 470
232288 784191 509
204855 331616 443
313537 983963 525
107951 529515 470
480610 582523 470
765734 889956 525
309597 442774 449
399449 572719 470
5514 992123 525
120023 850978 525
267638 289258 407
245650 484536 449
313000 942589 525
132164 755695 509
536436 834195 509
137334 674263 509
484479 962621 525
179140 817862 509
705009 707975 380
769005 971264 525
101411 740021 509
28128 199822 383
93573 792185 509
265584 694409 509
78596 783181 509
