..............................
----------------------------------------------------------------------
Ran 30 tests in 6.517s

OK
Name             Stmts   Miss Branch BrPart  Cover   Missing
------------------------------------------------------------
Collatz.py          48      0     22      0   100%
TestCollatz.py     130      0      4      0   100%
------------------------------------------------------------
TOTAL              178      0     26      0   100%
