............
----------------------------------------------------------------------
Ran 12 tests in 0.062s

OK
Name             Stmts   Miss Branch BrPart  Cover   Missing
------------------------------------------------------------
Collatz.py          38      2     18      1    95%   53-54, 52->53
TestCollatz.py      53      0      0      0   100%
------------------------------------------------------------
TOTAL               91      2     18      1    97%
