1 10 20
100 200 125
201 210 89
900 1000 174
1 5000 238
2 99 119
3 999 179
4 9999 262
5 1579 182
12 144 122
1 10000 262
1000 5000 238
1234 5678 238
4321 8765 262
8765 4321 262
99 9999 262
800 8000 262
5555 9999 262
7 7 17
7 8 17
7 800 171
7 8000 262
66 394 144
3500 750 217
7654 2364 262
2135 9521 262
73 5540 238
20 2000 182
128 9875 262
4000 4002 114
2500 7500 262
513 8512 262
8465 1254 262
5463 2356 238
764 213 171
654 8752 262
1456 8456 262
2514 52 209
312 9999 262
10001 20000 279
30001 40000 324
50001 60000 340
80000 70001 351
90001 100000 333
100001 110000 354
150001 160000 383
170001 180000 347
180001 190000 365
200000 190001 360
200001 210000 373
230000 220001 368
250001 260000 363
270001 280000 407
290000 300000 371
510001 520000 470
540000 530001 377
550001 560000 421
580000 570001 390
590001 600000 403
600001 610000 403
630000 620001 509
660000 650001 429
690000 680001 398
700000 690001 442
710001 720000 411
730001 740000 424
750001 760000 424
770001 780000 437
790001 800000 468
820001 830000 450
890001 900000 370
880000 870001 432
920000 910001 476
940001 950000 383
980001 990000 427
1 100000 351
1500 100000 351
5000 90000 351
50 50000 324
5 555555 470
1 999999 525
9 999999 525
9999 999999 525
99 99999 351
12340 123400 354
5678 56780 340
5678 567800 470
56780 567800 470
56 567800 470
5 567800 470
531 65432 340
864531 8654 525
2356 213564 383
845 965431 525
5421 96851 351
123 85236 351
876453 986453 507
645 486531 449
62 78515 351
68985 786521 509
159519 2552 383
45652 735519 509
41 63925 340
52 841025 525
54120 630145 509
4 410225 449
65 852096 525
