149775 277223 443
848995 742098 525
452809 222193 449
331690 382433 441
209751 140221 383
240193 502590 449
700112 756656 504
286865 471549 449
634631 707815 504
252123 265560 407
394944 811788 509
196584 135672 383
64226 124663 354
592052 764623 509
946746 525041 525
907139 212732 525
857812 914985 476
377371 415325 449
830522 534667 509
543832 401044 470
44097 600674 470
379810 938843 525
411118 962536 525
182045 294117 443
83371 797479 509
680210 810378 504
190094 37458 383
629064 644877 416
652097 895431 525
442543 643548 509
636244 356660 509
472466 222076 449
898538 902800 401
636688 193251 509
643631 865722 525
22130 89510 351
851916 982720 507
183705 867645 525
883282 642367 525
174044 205235 365
717694 825747 468
271984 168811 443
212559 478267 449
857131 513928 525
633129 775829 504
62269 824510 509
157564 802125 509
725032 94120 509
942750 313005 525
906996 523231 525
351159 471199 449
39815 367594 443
504706 255316 449
673390 551064 509
672844 291969 509
155770 568774 470
391501 491664 449
54343 746851 509
266079 820635 509
938708 681770 525
588994 683434 509
551445 402904 470
402336 855582 525
591990 660253 509
856475 648258 525
714424 719802 380
269435 905349 525
57456 92438 351
344830 715170 509
766394 569762 509
456316 237716 449
208611 275743 443
311663 429339 449
535676 952584 525
777129 210581 509
202967 300128 443
240600 26935 443
613415 644365 509
612834 277949 470
875262 612063 525
662287 613119 509
49994 316764 443
2305 534708 470
691247 547171 509
974117 845245 507
991854 727137 525
62681 74158 330
308120 738741 509
680205 926676 525
96493 486054 449
988001 518823 525
923614 428307 525
156287 506877 449
805510 615637 509
503124 88200 449
205774 541398 470
213320 628131 509
193913 439781 449
983302 926050 507
94479 267609 443
329900 963774 525
899991 367639 525
56899 382542 443
440835 162845 449
310135 492922 449
180506 244392 443
230531 295779 443
587380 306334 470
144734 640772 509
910524 922122 432
900539 842546 445
912346 268197 525
340510 864972 525
361411 262784 441
691616 660603 442
89270 695212 509
981129 701290 525
431551 148935 449
831088 709934 468
256313 294679 407
181866 545378 470
965244 772681 525
698302 627030 442
952834 6023 525
977258 943009 458
352547 204266 443
921904 76839 525
991180 142228 525
516743 805401 509
33268 678432 509
10680 490700 449
263555 482348 449
741795 898058 525
845278 964840 507
375116 967755 525
619266 828793 509
354710 251077 441
901912 671866 525
576709 371613 470
311322 776872 509
976231 394941 525
815638 347373 509
733578 832756 468
752187 3062 509
462563 933135 525
366629 921290 525
706790 241928 509
113691 774609 509
9365 261338 443
648837 351269 509
497340 60934 449
356641 119155 443
315477 231677 407
252118 643901 509
318168 12865 443
841463 192898 525
459897 628029 509
110456 298907 443
266292 525043 470
340683 657960 509
587084 383459 470
583111 508835 470
639360 619217 509
167410 811978 509
398505 621869 470
969769 409996 525
693869 407197 509
173494 505564 449
511486 699644 509
16805 629740 509
666899 901807 525
774679 816377 468
869820 489688 525
726778 236821 509
125687 297655 443
