1 10 20
100 200 125
201 210 89
900 1000 174
1 1 1
999999 999999 259
100 1 119
8847 5985 262
2903 9363 262
5438 281 238
419 2370 183
233 3899 238
487420 615074 470
815730 275375 509
593047 343187 470
616230 123426 470
830387 230879 509
2154 4894 238
5899 6406 262
946209 239708 525
939194 553632 525
422692 793862 509
487542 375197 449
548405 29800 470
1876 1876 25
9123 9123 61
734852 975823 525
494717 209174 449
731311 118815 509
898391 672547 525
281 22 128
306072 134491 443
960689 549446 525
465783 795804 509
705929 148426 509
61425 344987 443
176228 672438 509
70 877 179
231 888 179
862248 422899 525
1 999999 525
999999 1 525
327921 667969 509
211808 512375 470
2610 8047 262
7780 7903 221
3658 1421 217
5538 3435 238
89782 73912 351
20 123124 354
72785 97381 351
18734 43321 324
98267 11698 351
73036 39476 340
235 235 128
1763 94030 351
821949 438277 509
123412 123412 88
4098 2610 238
72348 72348 95
3298 6141 238
2299 888 183
299 519 144
347 731 171
300632 1451 443
575135 137830 470
652 406 145
430 65 144
774 267 171
8983 9820 260
396887 134500 443
174594 884566 525
77339 71215 351
94085 811212 509
326532 322795 384
412098 748381 509
8189 1138 262
8468 3279 262
538197 127464 470
422096 667208 509
560621 919297 525
213300 496794 449
608815 780031 509
1783 129 182
949 7411 262
9697 21489 279
369440 420278 449
473300 146749 449
205301 495096 449
6772 2662 262
8581 3800 262
293484 89751 443
973726 266605 525
704 6 171
119 860 171
749 491 171
514798 779527 509
786123 786123 194
8237 80 262
216099 525925 470
373 1407 182
6675 8676 257
3581 9403 262
1531 5260 238
11375 9993 268
289371 874117 525
574461 817968 509
791228 70469 509
779 706 153
186 904 179
820 799 135
96436 7065 351
415601 182041 449
101934 86923 341
5 198 125
678798 231347 509
639412 487200 509
11 635 144
52777 739257 509
796178 722044 468
84798 953562 525
1369 6365 262
166296 922229 525
229222 264942 443
3168 271 217
6381 4803 262
1287 7000 262
1747 472 182
14 1895 182
606038 656569 509
196032 388929 443
592738 790603 509
262097 806978 509
642339 828536 504
6353 5152 262
3925 7716 262
12389 981372 525
55543 32407 340
65782 12115 340
327016 196346 443
54036 276617 443
995600 956093 458
398 693 145
46738 20626 324
661 19412 279
29884 49890 324
56381 76226 335
871 8 179
31288 78360 351
331029 33124 443
828 386 171
883 513 179
617324 869915 525
45811 533351 470
986377 173977 525
178853 912917 525
484507 175918 449
425146 870336 525
864 659 171
189 410 144
1000 893 174
396361 763838 509
218911 273995 443
428521 227583 449
180117 173239 347
183928 183928 91
72619 543 340
523501 613458 452
434489 152003 449
612 310 144
642991 6514 509
257640 143690 443
912389 912389 57
9873 176 262
100000 100000 129
